{
  "credentials": [
    {
      "id": 10250009,
      "name": "TestCourse",
      "description": "Test Description",
      "grade": null,
      "complete": true,
      "issued_on": "2015-07-03T07:10:04.000Z",
      "allow_supplemental_references": null,
      "allow_supplemental_evidence": null,
      "course_link": "http://example.com",
      "custom_attributes": null,
      "expired_on": null,
      "group_name": "test",
      "private": false,
      "recipient": {
        "name": "John Doe",
        "email": "person2@example.com",
        "id": 772,
        "meta_data": {
          "zip_code": "10459"
        }
      },
      "issuer": {
        "name": "Example Provider",
        "description": " Best place to manage online learning",
        "url": "http://www.accredible.com"
      },
      "meta_data": {
        "foo": "bar"
      }
    },
    {
      "id": 10250010,
      "name": "TestCourse",
      "description": "Test Description",
      "grade": null,
      "complete": true,
      "issued_on": "2015-07-03T07:10:04.000Z",
      "allow_supplemental_references": null,
      "allow_supplemental_evidence": null,
      "course_link": "http://example.com",
      "custom_attributes": null,
      "expired_on": null,
      "group_name": "test",
      "private": false,
      "recipient": {
        "name": "John Doe",
        "email": "person2@example.com",
        "id": 883,
        "meta_data": null
      },
      "issuer": {
        "name": "Example Provider",
        "description": " Best place to manage online learning",
        "url": "http://www.accredible.com"
      },
      "meta_data": null
    }
  ],
  "meta": {
    "current_page": 1,
    "next_page": 2,
    "prev_page": null,
    "total_pages": 2,
    "total_count": 4
  }
}